<?xml version="1.0" encoding="utf-8"?>
<!-- Generator: Adobe Illustrator 19.0.0, SVG Export Plug-In . SVG Version: 6.00 Build 0)  -->
<svg version="1.1" id="Capa_1" xmlns:sketch="http://www.bohemiancoding.com/sketch/ns"
	 xmlns="http://www.w3.org/2000/svg" xmlns:xlink="http://www.w3.org/1999/xlink" x="0px" y="0px" viewBox="-25 -32.1 218 218"
	 style="enable-background:new -25 -32.1 218 218;" xml:space="preserve">
<style type="text/css">
	.st0{fill:#D1D1D1;}
	.st1{fill:none;stroke:#333366;stroke-width:2;stroke-linecap:round;stroke-linejoin:round;}
</style>
<g id="Page-1">
	<g id="Artboard-1">
		<g id="Circle-_x2B_-Illustration">
			<path id="Circle" class="st0" d="M181,119.4c-5.5,13.4-14.9,24.2-24.9,34.3c-10,10.1-21.1,18.5-34.4,24.1
				c-12.9,5.4-26.5,8-41.3,8c-14.8,0-29.5-0.1-42.3-5.4c-13.3-5.6-25.8-14.1-35.8-24.2c-10-10.1-17.6-23.1-23.1-36.5
				c-5.3-13-6.2-27.4-6.2-42.3c0-14.9,3.1-28.3,8.5-41.3C-13,22.6-8.2,8.4,1.9-1.8c10-10.1,23.2-17.6,36.5-23.1
				c12.9-5.4,27.2-7.2,42-7.2c14.8,0,29,2.3,41.8,7.7c13.3,5.6,23.9,15.3,33.9,25.4c10,10.1,20.8,20.3,26.3,33.8
				c5.3,13,8.2,27.7,8.2,42.6S186.3,106.5,181,119.4z"/>
			<g id="Illustration" transform="translate(36.000000, 40.000000)">
			</g>
			<path id="Imported-Layers" class="st1" d="M27.8,141.6c40.3,0,80.5,0,120.8,0.1c5.3,0,4-5.6,3.7-9.2c-0.3-3.9-1.6-3-5.4-3
				c-6.4,0-12.9-0.2-19.3-0.2c-12.9,0-25.8-0.2-38.6-0.2H61.1H47.5c-4.3,0-9.7,1.1-13.8,0c3.9-6.2,11.3-11.3,16.5-16.5
				c6.4-6.3,19.7-19.5,26.1-25.9c0.7-0.7,1.5-1.4,2.4-1.8c1-0.4,2-0.4,3.1-0.3c5.6,0.3,11.5,1.8,16.6-0.7c2.2-1.1,3.9-2.9,5.6-4.6
				c13.4-13.7,19.9-20.5,33.4-34.2c4,3.9,8.1,9.2,12.9,12.1c1.1-4.3,3-31.4-1.9-31.4c-10.1,0-20.2-0.8-30.3,0.1
				c3.5,4.2,7.4,8.1,11.1,12.1c0.2,0.2,0.4,0.5,0.4,0.8c0,0.2-0.2,0.4-0.4,0.6c-13.3,13.2-19.6,19.6-32.9,32.9
				c-0.7,0.7-1.4,1.4-2.3,1.8c-1.1,0.5-2.3,0.4-3.4,0.4c-3.6-0.1-7.1-0.2-10.7-0.4c-1.6-0.1-3.2-0.1-4.6,0.4
				c-6.3,2.3-10.4,8.3-14.7,13.1c-10.1,11-21.6,21.9-32.5,32.6c2.4-2.3-0.4-21.2-0.4-25.1c-0.1-30-0.1-60,0.3-90
				C27.9,5,20.8,5,20.4,5c-1.9,0-3.8-0.6-4.6,1.6c-0.8,2.2,0.1,6.4,0.1,8.8v32.8v47c0,17.2,2.1,33.3-11.9,46.1c0,0-14,14.6-28,14.6"
				/>
		</g>
	</g>
</g>
</svg>
