<?xml version="1.0" encoding="utf-8"?>
<!-- Generator: Adobe Illustrator 21.0.0, SVG Export Plug-In . SVG Version: 6.00 Build 0)  -->
<svg version="1.1" id="Capa_1" xmlns="http://www.w3.org/2000/svg" xmlns:xlink="http://www.w3.org/1999/xlink" x="0px" y="0px"
	 viewBox="0 0 85 85" style="enable-background:new 0 0 85 85;" xml:space="preserve">
<style type="text/css">
	.st0{fill:#D1D1D1;}
	.st1{fill:#FFFFFF;}
</style>
<path id="Circle" class="st0" d="M80.1,59c-2.1,5-5.6,9.1-9.4,12.9c-3.8,3.8-7.9,7-12.9,9.1c-4.9,2-10,3-15.5,3s-11.1,0-15.9-2
	c-5-2.1-9.7-5.3-13.5-9.1s-6.6-8.7-8.7-13.7c-2-4.9-2.3-10.3-2.3-15.9S3,32.5,5,27.6c2.1-5.1,3.9-10.4,7.7-14.3
	c3.8-3.8,8.7-6.6,13.7-8.7c4.9-2,10.2-2.7,15.8-2.7S53.2,2.8,58,4.8c5,2.1,9,5.8,12.8,9.6c3.8,3.8,7.8,7.6,9.9,12.7
	c2,4.9,3.1,10.4,3.1,16S82.1,54.1,80.1,59z"/>
<g>
	<polygon class="st1" points="31.8,47.1 31.8,34.5 24.6,34.5 24.6,47.1 28.2,52.5 	"/>
	<rect x="24.6" y="27.4" class="st1" width="7.2" height="3.6"/>
	<path class="st1" d="M60.5,36.3V25.6L24.6,61.5h10.7v-3.6h3.6v3.6h3.6v-3.6h3.6v3.6h3.6v-3.6h3.6v3.6h7.2v-7.2h-3.6v-3.6h3.6v-3.6
		h-3.6v-3.6h3.6v-3.6h-3.6v-3.6H60.5z M53.3,54.3H42L53.3,43V54.3z"/>
</g>
</svg>
