<?xml version="1.0" encoding="utf-8"?>
<!-- Generator: Adobe Illustrator 19.0.0, SVG Export Plug-In . SVG Version: 6.00 Build 0)  -->
<svg version="1.1" id="k" xmlns="http://www.w3.org/2000/svg" xmlns:xlink="http://www.w3.org/1999/xlink" x="0px" y="0px"
	 viewBox="0 0 214 200" style="enable-background:new 0 0 214 200;" xml:space="preserve">
<g>
	<path d="M-108.6-106.8c-1.3,0-2.6-0.5-3.5-1.5l-18.3-18.3l-18.3,18.3c-0.9,0.9-2.2,1.5-3.5,1.5c-1.3,0-2.6-0.5-3.5-1.5l-23.2-23.2
		c-0.9-0.9-1.5-2.2-1.5-3.5c0-1.3,0.5-2.6,1.5-3.5l18.3-18.3l-18.3-18.3c-0.9-0.9-1.5-2.2-1.5-3.5c0-1.3,0.5-2.6,1.5-3.5l23.2-23.2
		c0.9-0.9,2.2-1.5,3.5-1.5c1.3,0,2.6,0.5,3.5,1.5l18.3,18.3l18.3-18.3c0.9-0.9,2.2-1.5,3.5-1.5c1.3,0,2.6,0.5,3.5,1.5l23.2,23.2
		c0.9,0.9,1.5,2.2,1.5,3.5c0,1.3-0.5,2.6-1.5,3.5l-18.3,18.3l18.3,18.3c0.9,0.9,1.5,2.2,1.5,3.5c0,1.3-0.5,2.6-1.5,3.5l-23.2,23.2
		C-106-107.3-107.2-106.8-108.6-106.8z M-173.9-135l21.7,21.7l21.8-21.8l21.8,21.8l21.7-21.7l-21.8-21.8l21.8-21.8l-21.7-21.7
		l-21.8,21.8l-21.8-21.8l-21.7,21.7l21.8,21.8L-173.9-135z"/>
</g>
<g>
	<circle cx="120.7" cy="343.2" r="3"/>
	<path d="M138.4,337.5l0.7,2.1h41.5l-0.4-3.3c-1-8.8-3.9-17.2-8.7-24.7l-2-3.2l-6.7,6.7l-13.4-13.4l6.8-6.8l-3.1-2
		c-7.7-4.9-16.2-8-25.2-9.1l-3.4-0.4v41.6l2.1,0.7C132.1,327.4,136.6,331.9,138.4,337.5z M130.5,290.2c5.7,1,11.1,3,16.1,5.7
		l-5.7,5.7l21.9,21.9l5.5-5.5c2.6,4.9,4.4,10.1,5.4,15.6h-30.4c-2.5-5.8-7.1-10.4-12.8-12.9V290.2z"/>
	<path d="M138.3,349.2c-1.8,5.4-6.2,9.8-11.6,11.6l-2,0.7v41.6l3.4-0.4c8.5-1,16.5-3.8,23.8-8.3l3.3-2l-6.3-6.3l13.4-13.4l6.5,6.5
		l2-3.1c5-7.7,8.3-16.5,9.4-25.6l0.4-3.4H139L138.3,349.2z M173.7,353.2c-1.1,5.8-3.1,11.4-6,16.5l-5.4-5.4l-21.9,21.9l5,5
		c-4.6,2.4-9.6,4.1-14.7,5.1v-30.5c5.5-2.5,10-7,12.5-12.5H173.7z"/>
	<path d="M103.1,349.4l-0.7-2H60.8l0.4,3.4c1.1,8.6,4,16.7,8.6,24.1l2,3.2l5.9-5.9l13.4,13.4l-6,6l3.1,2c7.7,5,16.5,8.1,25.6,9.2
		l3.3,0.4v-41.5l-2.1-0.7C109.5,359.2,105.1,354.9,103.1,349.4z M111.1,396.3c-5.8-1-11.3-3-16.4-5.8l4.9-4.9l-21.9-21.9l-4.7,4.7
		c-2.5-4.7-4.3-9.8-5.3-15h30.6c2.6,5.6,7.2,10.1,12.8,12.5V396.3z"/>
	<path d="M102.9,337.7c1.8-5.7,6.2-10.2,11.9-12.1l2.1-0.7v-41.6l-3.4,0.4c-9,1.1-17.4,4.1-25,9l-3.2,2l6.3,6.3l-13.4,13.4l-6.3-6.3
		l-2,3.2c-4.9,7.7-7.8,16.2-8.8,25.2l-0.4,3.3h41.5L102.9,337.7z M67.6,333.8c1-5.6,2.8-11,5.6-16l5.1,5.1l21.9-21.9l-5.2-5.2
		c5-2.7,10.3-4.6,15.9-5.6v30.5c-5.9,2.5-10.5,7.3-13,13.2H67.6z"/>
</g>
<g>
	<path d="M-327.5-372.3l-13.1-13.1l11.7-11.7c1.1-1.1,1.6-2.6,1.3-4c-0.3-1.4-1.3-2.5-2.8-3.1l-70.9-26.5c-1.6-0.6-3.2-0.3-4.3,0.7
		c-1.1,1.1-1.3,2.7-0.7,4.3l26.5,70.9c0.6,1.5,1.7,2.5,3.1,2.8c1.4,0.3,2.9-0.2,4-1.3l11.7-11.7l13.1,13.1c1.9,1.9,5.1,1.9,7.1,0
		l13.4-13.4C-325.5-367.2-325.5-370.4-327.5-372.3z M-344.4-356.7l-16.6-16.6l-14,14l-24-64.1l64.1,24l-14,14l16.6,16.6
		L-344.4-356.7z"/>
	<path d="M-404.9-404.7c-0.4-1-0.9-1.7-1.1-1.5c-0.1,0.1-0.3,0.3-0.4,0.4c-2.9-2.5-8.1-8-11-15.9c1.2-0.2,2.5-0.4,3.9-0.5
		c1.1-0.1,1.9-0.4,1.8-0.7l-0.2-0.5c-0.4-1-0.6-1.9-0.6-2.9c-0.1-1.1-0.9-1.9-2-1.8c-1.5,0.2-3,0.4-4.4,0.6
		c-0.3-1.8-0.5-3.7-0.5-5.7c0-1.9,0.1-3.7,0.4-5.5c3.6,0.7,7.8,1.1,12.3,1.1c4.8,0,9.1-0.5,12.8-1.2c0.2,0.9,0.3,1.8,0.3,2.8
		c0.1,1.1,0.9,2.3,2,2.7l2.2,0.8c1,0.4,1.9,0.4,1.9,0c0-0.2,0-0.5,0-0.7c0-2.5-0.2-4.8-0.6-7c3.6-1,6.3-2.2,8.1-3
		c1.2,3.1,1.8,6.4,1.8,9.9c0,0.9-0.1,1.9-0.1,2.8c-0.1,1.1,0.6,2.3,1.6,2.7l2,0.7c1,0.4,2.1-0.2,2.2-1.3c0.2-1.6,0.4-3.3,0.4-5
		c0-18.8-15.3-34-34-34s-34,15.3-34,34c0,18.8,15.3,34,34,34c0.5,0,1.1,0,1.6,0c0.9,0,1.3-1,0.9-2L-404.9-404.7z M-382.6-448.6
		c-1.5,0.7-3.8,1.6-6.8,2.5c-1.9-5.7-5-10.4-7.8-13.8C-391.2-457.9-386-453.8-382.6-448.6z M-406.4-460.7c2.9,2.6,8.1,8.1,11,16
		c-3.3,0.6-7.1,1-11.3,1c-4,0-7.6-0.4-10.8-0.9C-414.6-452.6-409.3-458.1-406.4-460.7z M-415.7-459.7c-2.8,3.5-5.8,8.1-7.7,13.7
		c-2.7-0.8-4.9-1.6-6.5-2.3C-426.5-453.4-421.6-457.5-415.7-459.7z M-432.4-423.6c-1.1-3-1.7-6.3-1.7-9.7c0-3.3,0.6-6.5,1.7-9.5
		c1.8,0.8,4.4,1.8,7.7,2.7c-0.4,2.2-0.6,4.4-0.6,6.9c0,2.5,0.2,4.8,0.6,7C-428-425.3-430.6-424.4-432.4-423.6z M-429.7-418.2
		c1.6-0.7,3.7-1.5,6.4-2.2c1.9,5.5,4.8,10,7.6,13.5C-421.5-409.1-426.4-413.1-429.7-418.2z"/>
</g>
<g>
	<g>
		<circle cx="369.3" cy="343.2" r="3"/>
	</g>
	<g>
		<path d="M369.3,398.6c-30.5,0-55.4-24.8-55.4-55.4c0-30.5,24.8-55.4,55.4-55.4c30.5,0,55.4,24.8,55.4,55.4
			C424.7,373.8,399.8,398.6,369.3,398.6z M369.3,293.8c-27.2,0-49.4,22.2-49.4,49.4c0,27.2,22.2,49.4,49.4,49.4
			c27.2,0,49.4-22.2,49.4-49.4C418.7,316,396.5,293.8,369.3,293.8z"/>
	</g>
	<g>
		<path d="M372.3,322.9c0,1.1-0.9,2-2,2h-2c-1.1,0-2-0.9-2-2v-45.7c0-1.1,0.9-2,2-2h2c1.1,0,2,0.9,2,2V322.9z"/>
	</g>
	<g>
		<path d="M437.3,344.2c0,1.1-0.9,2-2,2h-45.7c-1.1,0-2-0.9-2-2v-2c0-1.1,0.9-2,2-2h45.7c1.1,0,2,0.9,2,2V344.2z"/>
	</g>
	<g>
		<path d="M372.3,409.2c0,1.1-0.9,2-2,2h-2c-1.1,0-2-0.9-2-2v-45.7c0-1.1,0.9-2,2-2h2c1.1,0,2,0.9,2,2V409.2z"/>
	</g>
	<g>
		<path d="M351,344.2c0,1.1-0.9,2-2,2h-45.7c-1.1,0-2-0.9-2-2v-2c0-1.1,0.9-2,2-2H349c1.1,0,2,0.9,2,2V344.2z"/>
	</g>
</g>
<g>
	<g>
		<g>
			<path d="M369.3,104.6c-7.6,0-13.8-6.2-13.8-13.8c0-7.6,6.2-13.8,13.8-13.8c7.6,0,13.8,6.2,13.8,13.8
				C383.1,98.4,376.9,104.6,369.3,104.6z M369.3,83.1c-4.3,0-7.8,3.5-7.8,7.8c0,4.3,3.5,7.8,7.8,7.8s7.8-3.5,7.8-7.8
				C377.1,86.5,373.6,83.1,369.3,83.1z"/>
		</g>
	</g>
	<g>
		<path d="M369.3,149.5c-32.4,0-58.7-26.3-58.7-58.7s26.3-58.7,58.7-58.7S428,58.5,428,90.8S401.7,149.5,369.3,149.5z M369.3,38.1
			c-29.1,0-52.7,23.6-52.7,52.7s23.6,52.7,52.7,52.7c29.1,0,52.7-23.6,52.7-52.7S398.4,38.1,369.3,38.1z"/>
	</g>
	<g>
		<path d="M372.3,60.2c0,1.1-0.9,2-2,2h-2c-1.1,0-2-0.9-2-2V37.1c0-1.1,0.9-2,2-2h2c1.1,0,2,0.9,2,2V60.2z"/>
	</g>
	<g>
		<path d="M425,91.8c0,1.1-0.9,2-2,2h-23.1c-1.1,0-2-0.9-2-2v-2c0-1.1,0.9-2,2-2H423c1.1,0,2,0.9,2,2V91.8z"/>
	</g>
	<g>
		<path d="M372.3,144.5c0,1.1-0.9,2-2,2h-2c-1.1,0-2-0.9-2-2v-23.1c0-1.1,0.9-2,2-2h2c1.1,0,2,0.9,2,2V144.5z"/>
	</g>
	<g>
		<path d="M340.7,91.8c0,1.1-0.9,2-2,2h-23.1c-1.1,0-2-0.9-2-2v-2c0-1.1,0.9-2,2-2h23.1c1.1,0,2,0.9,2,2V91.8z"/>
	</g>
</g>
<g>
	<g>
		<g>
			<path d="M369.3-355.3c-29.5,0-53.6-24-53.6-53.6s24-53.6,53.6-53.6c29.5,0,53.6,24,53.6,53.6S398.8-355.3,369.3-355.3z
				 M369.3-456.4c-26.2,0-47.6,21.3-47.6,47.6s21.3,47.6,47.6,47.6c26.2,0,47.6-21.3,47.6-47.6S395.5-456.4,369.3-456.4z"/>
		</g>
		<g>
			<path d="M369.3-372.5c-20,0-36.3-16.3-36.3-36.3c0-20,16.3-36.3,36.3-36.3c20,0,36.3,16.3,36.3,36.3
				C405.6-388.8,389.3-372.5,369.3-372.5z M369.3-439.1c-16.7,0-30.3,13.6-30.3,30.3c0,16.7,13.6,30.3,30.3,30.3
				c16.7,0,30.3-13.6,30.3-30.3C399.6-425.5,386-439.1,369.3-439.1z"/>
		</g>
		<g>
			<path d="M369.3-391.4c-9.6,0-17.4-7.8-17.4-17.4c0-9.6,7.8-17.4,17.4-17.4c9.6,0,17.4,7.8,17.4,17.4
				C386.7-399.2,378.9-391.4,369.3-391.4z M369.3-420.3c-6.3,0-11.4,5.1-11.4,11.4s5.1,11.4,11.4,11.4c6.3,0,11.4-5.1,11.4-11.4
				S375.6-420.3,369.3-420.3z"/>
		</g>
	</g>
	<g>
		<path d="M372.3-435.2c0,1.1-0.9,2-2,2h-2c-1.1,0-2-0.9-2-2v-22.2c0-1.1,0.9-2,2-2h2c1.1,0,2,0.9,2,2V-435.2z"/>
	</g>
	<g>
		<path d="M419.9-407.8c0,1.1-0.9,2-2,2h-22.2c-1.1,0-2-0.9-2-2v-2c0-1.1,0.9-2,2-2h22.2c1.1,0,2,0.9,2,2V-407.8z"/>
	</g>
	<g>
		<path d="M372.3-360.3c0,1.1-0.9,2-2,2h-2c-1.1,0-2-0.9-2-2v-22.2c0-1.1,0.9-2,2-2h2c1.1,0,2,0.9,2,2V-360.3z"/>
	</g>
	<g>
		<path d="M344.9-407.8c0,1.1-0.9,2-2,2h-22.2c-1.1,0-2-0.9-2-2v-2c0-1.1,0.9-2,2-2h22.2c1.1,0,2,0.9,2,2V-407.8z"/>
	</g>
</g>
<g>
	<g>
		<path d="M-95.8,288.3h20.3v20.3c0,1.1,0.9,2,2,2h2c1.1,0,2-0.9,2-2v-21.3c0-2.8-2.2-5-5-5h-21.3c-1.1,0-2,0.9-2,2v2
			C-97.8,287.4-96.9,288.3-95.8,288.3z"/>
		<path d="M-185.2,308.7v-20.3h20.3c1.1,0,2-0.9,2-2v-2c0-1.1-0.9-2-2-2h-21.3c-2.8,0-5,2.2-5,5v21.3c0,1.1,0.9,2,2,2h2
			C-186.1,310.7-185.2,309.8-185.2,308.7z"/>
		<path d="M-75.5,377.8v20.3h-20.3c-1.1,0-2,0.9-2,2v2c0,1.1,0.9,2,2,2h21.3c2.8,0,5-2.2,5-5v-21.3c0-1.1-0.9-2-2-2h-2
			C-74.6,375.8-75.5,376.7-75.5,377.8z"/>
		<path d="M-164.9,398.1h-20.3v-20.3c0-1.1-0.9-2-2-2h-2c-1.1,0-2,0.9-2,2v21.3c0,2.8,2.2,5,5,5h21.3c1.1,0,2-0.9,2-2v-2
			C-162.9,399-163.8,398.1-164.9,398.1z"/>
	</g>
	<g>
		<g>
			<path d="M-130.3,358.8c-8.6,0-15.5-7-15.5-15.5c0-8.6,7-15.5,15.5-15.5s15.5,7,15.5,15.5C-114.8,351.8-121.8,358.8-130.3,358.8z
				 M-130.3,333.7c-5.3,0-9.5,4.3-9.5,9.5c0,5.3,4.3,9.5,9.5,9.5c5.3,0,9.5-4.3,9.5-9.5C-120.8,338-125.1,333.7-130.3,333.7z"/>
		</g>
		<path d="M-117.9,309.2c1,0.4,1.9-0.2,1.9-1.3v-2.5c0-1.1-0.8-2.3-1.9-2.6c-3.9-1.2-8.1-1.9-12.4-1.9c-4.7,0-9.2,0.8-13.4,2.2
			c-1,0.4-1.9,1.6-1.9,2.7v2.5c0,1.1,0.8,1.6,1.8,1.2c4.1-1.7,8.7-2.6,13.4-2.6C-126,307-121.8,307.8-117.9,309.2z"/>
		<path d="M-93,328h-2.5c-1.1,0-1.6,0.8-1.2,1.8c1.7,4.1,2.6,8.7,2.6,13.4c0,4.4-0.8,8.6-2.2,12.5c-0.4,1,0.2,1.9,1.3,1.9h2.5
			c1.1,0,2.3-0.8,2.6-1.9c1.2-3.9,1.9-8.1,1.9-12.4c0-4.7-0.8-9.2-2.2-13.4C-90.7,328.8-91.9,328-93,328z"/>
		<path d="M-142.8,377.2c-1-0.4-1.9,0.2-1.9,1.3v2.5c0,1.1,0.8,2.3,1.9,2.6c3.9,1.2,8.1,1.9,12.4,1.9c4.7,0,9.2-0.8,13.4-2.2
			c1-0.4,1.9-1.6,1.9-2.7v-2.5c0-1.1-0.8-1.6-1.8-1.2c-4.1,1.7-8.7,2.6-13.4,2.6C-134.7,379.4-138.9,378.7-142.8,377.2z"/>
		<path d="M-164.3,330.7c0.4-1-0.2-1.9-1.3-1.9h-2.5c-1.1,0-2.3,0.8-2.6,1.9c-1.2,3.9-1.9,8.1-1.9,12.4c0,4.7,0.8,9.2,2.2,13.4
			c0.4,1,1.6,1.9,2.7,1.9h2.5c1.1,0,1.6-0.8,1.2-1.8c-1.7-4.1-2.6-8.7-2.6-13.4C-166.6,338.8-165.8,334.6-164.3,330.7z"/>
	</g>
</g>
<g>
	<path d="M-383.1,285.8c-31.7,0-57.4,25.8-57.4,57.4c0,31.7,25.8,57.4,57.4,57.4c31.7,0,57.4-25.8,57.4-57.4
		C-325.6,311.6-351.4,285.8-383.1,285.8z M-331.7,340.2h-18.7c-1.4-15.7-13.9-28.2-29.6-29.6v-18.7
		C-354.1,293.4-333.2,314.2-331.7,340.2z M-383.1,370c-14.8,0-26.8-12-26.8-26.8c0-14.8,12-26.8,26.8-26.8c14.8,0,26.8,12,26.8,26.8
		C-356.3,358-368.3,370-383.1,370z M-386.1,291.9v18.7c-15.7,1.4-28.2,13.9-29.6,29.6h-18.7C-432.9,314.2-412,293.4-386.1,291.9z
		 M-434.4,346.2h18.7c1.4,15.7,13.9,28.2,29.6,29.6v18.7C-412,393.1-432.9,372.2-434.4,346.2z M-380.1,394.6v-18.7
		c15.7-1.4,28.2-13.9,29.6-29.6h18.7C-333.2,372.2-354.1,393.1-380.1,394.6z"/>
	<path d="M-394.3,340.4h6.4c0.4-0.7,1-1.4,1.8-1.9v-6.5C-390.1,333.2-393.2,336.4-394.3,340.4z"/>
	<path d="M-380.1,332.1v6.5c0.7,0.5,1.3,1.1,1.8,1.9h6.4C-372.9,336.4-376,333.2-380.1,332.1z"/>
	<path d="M-387.6,346.4h-6.6c1.1,3.9,4.2,6.9,8.1,7.9v-6.5C-386.7,347.5-387.2,347-387.6,346.4z"/>
	<path d="M-380.1,347.9v6.5c3.9-1,7-4.1,8.1-7.9h-6.6C-379,347-379.5,347.5-380.1,347.9z"/>
</g>
<g>
	<path d="M-123.1-416.4c-1.1-1.2-2.2-1.5-3-1.5c-0.9,0-1.8,0.4-2.4,1c-0.5,0.5-1.1,1.5-1.1,3l1.2,69.6c0,2.6,1.9,4,3.7,4
		c0.7,0,1.7-0.2,2.8-1.1l11-9.5l4,10c0.8,1.9,2.6,3.1,4.6,3.1c0.6,0,1.3-0.1,1.9-0.4l8.3-3.3c1.2-0.5,2.2-1.4,2.7-2.7
		c0.5-1.2,0.5-2.6,0-3.8l-4-10l14.5-0.7c1.7-0.1,3.1-1,3.6-2.4c0.6-1.4,0.2-3-0.9-4.2L-123.1-416.4z M-102-363.3l6.7,16.9l-6.4,2.6
		l-6.7-16.9l-14.1,12.1l-1.1-59.3l40.1,43.7L-102-363.3z"/>
	<path d="M-109.7-423.3c0,1.3-0.1,2.6-0.4,3.9c-0.2,1.1,0.1,2.6,0.9,3.4l1.9,2c0.7,0.8,1.7,0.7,2.1-0.4c1-2.8,1.5-5.8,1.5-8.9
		c0-14.7-12-26.7-26.7-26.7s-26.7,12-26.7,26.7c0,10.9,6.5,20.2,15.9,24.4c1,0.4,1.8-0.2,1.8-1.3l0-2.6c0-1.1-0.8-2.4-1.8-3
		c-5.9-3.6-9.9-10.2-9.9-17.6c0-11.4,9.3-20.7,20.7-20.7C-118.9-444-109.7-434.7-109.7-423.3z"/>
	<path d="M-98.9-404.8l1.5,1.7c0.7,0.8,1.8,0.7,2.4-0.2c3.3-5.9,5.2-12.7,5.2-19.9c0-22.4-18.2-40.6-40.6-40.6s-40.6,18.2-40.6,40.6
		c0,18.7,12.7,34.5,29.9,39.2c1.1,0.3,1.9-0.4,1.9-1.5l0-2.2c0-1.1-0.9-2.2-2-2.6c-13.8-4.5-23.9-17.6-23.9-32.9
		c0-19.1,15.5-34.6,34.6-34.6s34.6,15.5,34.6,34.6c0,5.5-1.3,10.6-3.5,15.2C-99.8-407-99.6-405.6-98.9-404.8z"/>
	<path d="M-140.8-373.6c-23-4.8-40.3-25.3-40.3-49.7c0-28,22.8-50.8,50.8-50.8c28,0,50.8,22.8,50.8,50.8c0,10.2-3,19.7-8.2,27.7
		c-0.6,0.9-0.5,2.3,0.2,3.1l1.4,1.6c0.7,0.8,1.9,0.8,2.5-0.2c6.3-9.2,10.1-20.3,10.1-32.2c0-31.3-25.5-56.8-56.8-56.8
		s-56.8,25.5-56.8,56.8c0,27.8,20,50.9,46.4,55.8c1.1,0.2,2-0.6,1.9-1.7l0-2.1C-138.9-372.3-139.8-373.3-140.8-373.6z"/>
</g>
<path d="M189.7-159.8h-6.8c-1.5-32-27.3-57.7-59.3-59.3v-6.8c0-1.1-0.9-2-2-2h-2c-1.1,0-2,0.9-2,2v6.8c-32,1.5-57.7,27.3-59.3,59.3
	h-6.8c-1.1,0-2,0.9-2,2v2c0,1.1,0.9,2,2,2h6.8c1.5,32,27.3,57.7,59.3,59.3v6.8c0,1.1,0.9,2,2,2h2c1.1,0,2-0.9,2-2v-6.8
	c32-1.5,57.7-27.3,59.3-59.3h6.8c1.1,0,2-0.9,2-2v-2C191.7-158.9,190.8-159.8,189.7-159.8z M176.9-159.8h-37.5
	c-1.3-8.1-7.7-14.4-15.7-15.7V-213C152.3-211.5,175.4-188.4,176.9-159.8z M120.7-143.8c-7.2,0-13-5.8-13-13s5.8-13,13-13
	c7.2,0,13,5.8,13,13S127.8-143.8,120.7-143.8z M117.7-213v37.5c-8.1,1.3-14.4,7.7-15.7,15.7H64.4C65.9-188.4,89-211.5,117.7-213z
	 M64.4-153.8h37.5c1.3,8.1,7.7,14.4,15.7,15.7v37.5C89-102,65.9-125.1,64.4-153.8z M123.7-100.5V-138c8.1-1.3,14.4-7.7,15.7-15.7
	h37.5C175.4-125.1,152.3-102,123.7-100.5z"/>
<g>
	<path d="M-120.1,96.5V86.4c0-2.8-2.2-5-5-5h-10.1c-2.8,0-5,2.2-5,5v10.1c0,2.8,2.2,5,5,5h10.1C-122.3,101.5-120.1,99.2-120.1,96.5z
		 M-126.1,95.5h-8.1v-8.1h8.1V95.5z"/>
	<path d="M-131.1,73.1h2c1.1,0,2-0.9,2-2V16c0-1.1-0.9-2-2-2h-2c-1.1,0-2,0.9-2,2v55.1C-133.1,72.2-132.3,73.1-131.1,73.1z"/>
	<path d="M-55.5,88h-55.1c-1.1,0-2,0.9-2,2v2c0,1.1,0.9,2,2,2h55.1c1.1,0,2-0.9,2-2v-2C-53.5,88.9-54.4,88-55.5,88z"/>
	<path d="M-129.6,108.6h-2c-1.1,0-2,0.9-2,2v55.1c0,1.1,0.9,2,2,2h2c1.1,0,2-0.9,2-2v-55.1C-127.6,109.5-128.4,108.6-129.6,108.6z"
		/>
	<path d="M-148.1,91.6v-2c0-1.1-0.9-2-2-2h-55.1c-1.1,0-2,0.9-2,2v2c0,1.1,0.9,2,2,2h55.1C-149,93.6-148.1,92.7-148.1,91.6z"/>
	<path d="M-191.3,83.2h2c1.1,0,2-0.9,2-2V34.4h47.2c1.1,0,2-0.9,2-2v-2c0-1.1-0.9-2-2-2h-48.2c-2.8,0-5,2.2-5,5v47.8
		C-193.3,82.3-192.4,83.2-191.3,83.2z"/>
	<path d="M-120.3,34.4h46.3v47c0,1.1,0.9,2,2,2h2c1.1,0,2-0.9,2-2v-48c0-2.8-2.2-5-5-5h-47.3c-1.1,0-2,0.9-2,2v2
		C-122.3,33.5-121.4,34.4-120.3,34.4z"/>
	<path d="M-69.9,99.2h-2c-1.1,0-2,0.9-2,2v46.5h-46.6c-1.1,0-2,0.9-2,2v2c0,1.1,0.9,2,2,2h47.6c2.8,0,5-2.2,5-5v-47.5
		C-67.9,100.1-68.8,99.2-69.9,99.2z"/>
	<path d="M-140.3,147.7h-47v-46.8c0-1.1-0.9-2-2-2h-2c-1.1,0-2,0.9-2,2v47.8c0,2.8,2.2,5,5,5h48c1.1,0,2-0.9,2-2v-2
		C-138.3,148.6-139.2,147.7-140.3,147.7z"/>
</g>
<path d="M153.4,62.2l3.8-3.8l16,0.5l18.4-18.4c1.9-1.9,1.5-4.3,0.2-5.6c-0.6-0.6-1.5-1-2.5-1.2l-10-1.6l-1.6-10
	c-0.2-1-0.6-1.8-1.2-2.5c-1.3-1.3-3.7-1.7-5.6,0.2l-18.4,18.4l0.5,15.6l-50.1,50.5l11.5-3.4l3.6-3.6c2.6,4.5,2,10.3-1.8,14.1
	c-4.6,4.6-12,4.6-16.5,0c-4.6-4.6-4.6-12,0-16.5c1.4-1.4,3.1-2.4,4.8-2.9c1.1-0.3,2.6-1.1,3.4-1.8l2.8-2.8c0.8-0.8,0.5-1.6-0.6-1.8
	c-5.2-0.6-10.7,1-14.7,5c-6.9,6.9-6.9,18.1,0,25c6.9,6.9,18.1,6.9,25,0c6.2-6.2,6.8-15.8,1.9-22.7l9.9-9.9
	c10.2,12.4,9.6,30.8-2,42.4C118,138,98,138,85.7,125.7s-12.3-32.3,0-44.6c9.5-9.5,23.7-11.7,35.3-6.4c1,0.5,2.4,0.2,3.2-0.5l1.6-1.6
	c0.8-0.8,0.6-1.9-0.3-2.4c-14.2-7.4-32.1-5.2-44,6.7c-14.6,14.6-14.6,38.5,0,53.1c14.6,14.6,38.5,14.6,53.1,0
	c13.9-13.9,14.6-36.2,2-50.9L148,67.6c18.8,21,18.1,53.5-2.1,73.6c-20.9,20.9-54.9,20.9-75.8,0c-20.9-20.9-20.9-54.9,0-75.8
	c18.2-18.2,46.3-20.5,67-7.1c0.9,0.6,2.3,0.5,3.1-0.3l1.5-1.5c0.8-0.8,0.7-1.9-0.2-2.6c-23.2-15.7-55.1-13.3-75.6,7.2
	c-23.2,23.2-23.2,61.1,0,84.3c23.2,23.2,61.1,23.2,84.3,0c22.5-22.5,23.2-58.8,2.1-82.1L153.4,62.2z M178,38.1l6.6,1l-13.8,13.8
	l-7.4-0.2L178,38.1z M164.6,42.6l-5.6,5.6l-0.2-7.4L172.5,27l1,6.6L164.6,42.6z"/>
<g>
	<path d="M-365.7-156.8c0-9.6-7.8-17.4-17.4-17.4s-17.4,7.8-17.4,17.4c0,9.6,7.8,17.4,17.4,17.4S-365.7-147.2-365.7-156.8z
		 M-383.1-145.4c-6.3,0-11.4-5.1-11.4-11.4c0-6.3,5.1-11.4,11.4-11.4c6.3,0,11.4,5.1,11.4,11.4
		C-371.7-150.5-376.8-145.4-383.1-145.4z"/>
	<path d="M-350.7-147.8h-2.3c-1.1,0-2.3,0.9-2.7,1.9c-2.8,7.1-8.3,12.9-15.3,16c-1,0.5-1.8,1.7-1.8,2.8v2.3c0,1.1,0.9,1.7,1.9,1.4
		c10.2-3.7,18.2-12,21.6-22.4C-349-146.9-349.6-147.8-350.7-147.8z"/>
	<path d="M-394.8-190.4c-10.1,3.5-18.2,11.6-21.8,21.7c-0.4,1,0.3,1.9,1.4,1.9h2.3c1.1,0,2.3-0.8,2.7-1.9c3-6.9,8.5-12.4,15.4-15.3
		c1-0.4,1.9-1.6,1.9-2.7v-2.3C-392.9-190.1-393.8-190.7-394.8-190.4z"/>
	<path d="M-394.2-129.4c-7.3-3-13.1-8.7-16.1-15.9c-0.4-1-1.6-1.9-2.7-1.9h-2.3c-1.1,0-1.8,0.9-1.4,1.9c3.6,10.5,12,18.8,22.5,22.3
		c1,0.3,1.9-0.3,1.9-1.4v-2.3C-392.3-127.9-393.2-129-394.2-129.4z"/>
	<path d="M-371.5-184c6.7,2.9,12.1,8.2,15.2,14.8c0.5,1,1.7,1.8,2.8,1.8h2.4c1.1,0,1.7-0.9,1.4-1.9c-3.7-9.9-11.7-17.7-21.6-21.1
		c-1-0.4-1.9,0.3-1.9,1.4v2.3C-373.3-185.6-372.5-184.4-371.5-184z"/>
	<path d="M-371.4-206.5c18.5,4.4,33.1,18.8,37.8,37.2c0.3,1.1,1.3,1.9,2.5,1.9h2.1c1.1,0,1.8-0.9,1.6-2
		c-4.9-21.7-22.1-38.7-43.9-43.3c-1.1-0.2-2,0.5-2,1.6v2.1C-373.3-207.8-372.5-206.7-371.4-206.5z"/>
	<path d="M-328.8-147.8h-2.1c-1.1,0-2.2,0.9-2.4,2c-4.2,18.9-18.8,33.9-37.6,38.6c-1.1,0.3-2,1.3-2,2.4v2.1c0,1.1,0.9,1.8,2,1.6
		c22-4.9,39.3-22.5,43.7-44.7C-326.9-146.9-327.7-147.8-328.8-147.8z"/>
	<path d="M-437.3-166.8h2.1c1.1,0,2.2-0.9,2.4-2c4.5-18.6,19.2-33.3,37.9-37.7c1.1-0.3,2-1.3,2-2.4v-2.1c0-1.1-0.9-1.9-2-1.6
		c-22,4.6-39.3,21.9-44,43.9C-439.1-167.7-438.4-166.8-437.3-166.8z"/>
	<path d="M-394.3-107c-19.1-4.3-34.1-19.2-38.5-38.3c-0.2-1.1-1.3-2-2.4-2h-2.1c-1.1,0-1.9,0.9-1.6,2c4.6,22.3,22.3,39.9,44.7,44.4
		c1.1,0.2,2-0.5,2-1.6v-2.1C-392.3-105.7-393.2-106.8-394.3-107z"/>
</g>
<g>
	<path d="M-353.7,59.6c0-16.2-13.2-29.3-29.3-29.3c-16.2,0-29.3,13.2-29.3,29.3S-399.2,89-383.1,89C-366.9,89-353.7,75.8-353.7,59.6
		z M-406.4,59.6c0-12.9,10.5-23.3,23.3-23.3c12.9,0,23.3,10.5,23.3,23.3S-370.2,83-383.1,83C-395.9,83-406.4,72.5-406.4,59.6z"/>
	<path d="M-356.8,132.4c-1.1-0.2-2.5,0.4-3.1,1.3c-0.5,0.7-1,1.5-1.6,2.2c-0.6,0.9-0.3,1.8,0.8,1.9c17.4,2.6,27.7,8,27.7,12
		c0,5.5-19.5,13.6-50.1,13.6s-50.1-8-50.1-13.6c0-4.1,10.8-9.6,28.9-12.2c2.5-0.4,5.2-0.7,8-0.9l2.9,3.9c-2.6,0.2-5.3,0.6-7.9,1.1
		c-6.7,1.3-12.6,3.7-12.6,8.1c0,9.1,25.6,9.6,30.8,9.6c5.1,0,30.8-0.5,30.8-9.6c0-4.1-5.1-6.4-11.3-7.8c-1.1-0.2-2.5,0.3-3.1,1.2
		l-1.5,2.2c-0.6,0.9-0.3,1.8,0.8,1.9c4.2,0.7,7,1.6,8.4,2.4c-2,1.1-7,2.5-14.7,3.2c-2.8,0.2-5.9,0.4-9.4,0.4c-3.5,0-6.7-0.2-9.5-0.4
		c-7.6-0.7-12.6-2.1-14.6-3.2c1.5-0.8,4.9-1.9,10-2.6c2.4-0.4,5.2-0.6,8.3-0.8l2.3,2.8c0.9,1.1,2.2,1.7,3.5,1.7
		c1.4,0,2.8-0.7,3.6-1.9l2-2.6l1.5-2l0.1-0.1c0.8-1.2,1.7-2.4,2.5-3.6l0.1-0.1l2.8-3.9l2.1-3c0.6-0.9,1.3-1.8,1.9-2.7
		c18.8-26.8,32.9-49.1,32.9-69.5c0-27.2-22.1-49.3-49.3-49.3c-27.2,0-49.3,22.1-49.3,49.3c0,21.5,16.7,48.1,32.1,69.5
		c-2.7,0.3-5.3,0.6-7.9,1c-17.5,2.8-31,8.8-31,17.7c0,12.9,28.2,19.6,56.1,19.6c27.9,0,56.1-6.7,56.1-19.6
		C-327,141.2-339.8,135.3-356.8,132.4z M-426.4,61.6c0-23.9,19.4-43.3,43.3-43.3c23.9,0,43.3,19.4,43.3,43.3
		c0,19.3-14.6,41.6-33.7,68.7l-0.2,0.2l-4.1,5.8l-0.7,1c-0.7,1-1.4,2-2.1,3c-0.1,0.2-0.3,0.4-0.4,0.6l-2.3,3.1l-2.6-3.2
		c-0.1-0.2-0.2-0.3-0.4-0.5c-0.8-1-1.5-2-2.3-3l-0.7-0.9l-4.3-5.8l-0.2-0.2C-408.8,109.2-426.4,82.3-426.4,61.6z"/>
</g>
<g>
	<path d="M416.5-201.6l-40.9-21.8c-1-0.5-1.8,0-1.8,1.1v2.8c0,1.1,0.8,2.4,1.8,2.9l33.9,18.1L375.7-186c-1,0.4-1.9,1.6-1.9,2.7v2.4
		c0,1.1,0.8,1.7,1.9,1.3l40.3-14.9c1.6-0.6,2.7-1.9,2.8-3.4C418.9-199.4,418-200.8,416.5-201.6z"/>
	<path d="M378.7-128.9c-1.1-0.1-2,0.7-2,1.8v2.1c0,1.1,0.9,2.1,2,2.2c17.3,2,29.2,8.2,29.2,13.8c0,6.8-17.5,14.5-41,14.5
		c-23.5,0-41-7.7-41-14.5c0-6.5,16.1-13.8,38-14.5v4.7c-11.3,0.4-23.2,3.1-23.2,9.7c0,7.2,14.1,9.8,26.2,9.8
		c12.1,0,26.2-2.6,26.2-9.8c0-4.9-6.5-7.6-14.4-8.9c-1.1-0.2-2,0.6-2,1.7v2.1c0,1.1,0.9,2.1,2,2.3c4.4,0.8,7.1,2,8.1,2.8
		c-1.7,1.4-8.4,3.8-20,3.8c-11.5,0-18.3-2.4-20-3.8c1.5-1.2,7.3-3.3,17-3.7v3.3c0,1.1,0.9,2,2,2h2c1.1,0,2-0.9,2-2v-3.3v-6v-4.7v-6
		V-223c0-1.1-0.9-2-2-2h-2c-1.1,0-2,0.9-2,2v93.5c-25.3,0.6-44,9.2-44,20.5c0,11.7,20.2,20.5,47,20.5c26.8,0,47-8.8,47-20.5
		C413.8-118.9,399.4-126.7,378.7-128.9z"/>
</g>
<g>
	<path d="M177.7-465.9c-10.3-10.3-24.1-16-38.7-16c-14.6,0-28.4,5.7-38.7,16c-16,16-20.5,40.3-11.3,60.9l-36.8,36.8
		c-6.1,6.1-6.1,16.1,0,22.3l5.5,5.5c3,3,6.9,4.6,11.1,4.6c4.2,0,8.2-1.6,11.1-4.6l36.8-36.8c7,3.1,14.6,4.7,22.2,4.7c0,0,0,0,0,0
		c14.6,0,28.3-5.7,38.7-16c10.3-10.3,16-24.1,16-38.7C193.7-441.8,188-455.6,177.7-465.9z M104.7-461.5c9.1-9.1,21.3-14.2,34.3-14.2
		c13,0,25.2,5,34.3,14.2c9.1,9.1,14.2,21.3,14.2,34.3c0,13-5,25.2-14.2,34.3c-9.1,9.1-21.3,14.2-34.3,14.2c-13,0-25.2-5-34.3-14.2
		C85.8-411.8,85.8-442.6,104.7-461.5z M75.7-344.6c-1.8,1.8-4.3,2.8-6.9,2.8c-2.6,0-5.1-1-6.9-2.8l-5.5-5.5c-3.8-3.8-3.8-10,0-13.8
		l35.6-35.6c2.3,3.9,5.1,7.5,8.4,10.9c3.3,3.3,6.9,6.1,10.9,8.4L75.7-344.6z"/>
	<g>
		<g>
			<path d="M139.6-418c-5,0-9-4.1-9-9c0-5,4.1-9,9-9c5,0,9,4.1,9,9C148.6-422,144.6-418,139.6-418z M139.6-430c-1.7,0-3,1.4-3,3
				c0,1.7,1.4,3,3,3c1.7,0,3-1.4,3-3C142.6-428.7,141.3-430,139.6-430z"/>
		</g>
	</g>
	<g>
		<path d="M142.6-443.2c0,1.1-0.9,2-2,2h-2c-1.1,0-2-0.9-2-2v-19c0-1.1,0.9-2,2-2h2c1.1,0,2,0.9,2,2V-443.2z"/>
	</g>
	<g>
		<path d="M176.7-426.2c0,1.1-0.9,2-2,2h-19c-1.1,0-2-0.9-2-2v-2c0-1.1,0.9-2,2-2h19c1.1,0,2,0.9,2,2V-426.2z"/>
	</g>
	<g>
		<path d="M142.6-392c0,1.1-0.9,2-2,2h-2c-1.1,0-2-0.9-2-2v-19c0-1.1,0.9-2,2-2h2c1.1,0,2,0.9,2,2V-392z"/>
	</g>
	<g>
		<path d="M125.5-426.1c0,1.1-0.9,2-2,2h-19c-1.1,0-2-0.9-2-2v-2c0-1.1,0.9-2,2-2h19c1.1,0,2,0.9,2,2V-426.1z"/>
	</g>
</g>
</svg>
